<svg width="359" height="58" viewBox="0 0 359 58" fill="none" xmlns="http://www.w3.org/2000/svg">
<g filter="url(#filter0_d)">
<rect x="4.37988" width="349.855" height="50" rx="25" fill="#0B7AC7"/>
<path d="M86.4422 26.2969C86.3276 27.5104 85.8797 28.4583 85.0984 29.1406C84.3172 29.8177 83.2781 30.1562 81.9812 30.1562C81.075 30.1562 80.2755 29.9427 79.5828 29.5156C78.8953 29.0833 78.3641 28.4714 77.9891 27.6797C77.6141 26.888 77.4187 25.9688 77.4031 24.9219V23.8594C77.4031 22.7865 77.5932 21.8411 77.9734 21.0234C78.3536 20.2057 78.8979 19.5755 79.6062 19.1328C80.3198 18.6901 81.1427 18.4688 82.075 18.4688C83.3302 18.4688 84.3406 18.8099 85.1062 19.4922C85.8719 20.1745 86.3172 21.138 86.4422 22.3828H84.4734C84.3797 21.5651 84.1401 20.9766 83.7547 20.6172C83.3745 20.2526 82.8146 20.0703 82.075 20.0703C81.2156 20.0703 80.5542 20.3854 80.0906 21.0156C79.6323 21.6406 79.3979 22.5599 79.3875 23.7734V24.7812C79.3875 26.0104 79.6062 26.9479 80.0437 27.5938C80.4865 28.2396 81.1323 28.5625 81.9812 28.5625C82.7573 28.5625 83.3406 28.388 83.7312 28.0391C84.1219 27.6901 84.3693 27.1094 84.4734 26.2969H86.4422ZM93.8828 30C93.7995 29.8385 93.7266 29.5755 93.6641 29.2109C93.0599 29.8411 92.3203 30.1562 91.4453 30.1562C90.5964 30.1562 89.9036 29.9141 89.3672 29.4297C88.8307 28.9453 88.5625 28.3464 88.5625 27.6328C88.5625 26.7318 88.8958 26.0417 89.5625 25.5625C90.2344 25.0781 91.1927 24.8359 92.4375 24.8359H93.6016V24.2812C93.6016 23.8438 93.4792 23.4948 93.2344 23.2344C92.9896 22.9688 92.6172 22.8359 92.1172 22.8359C91.6849 22.8359 91.3307 22.9453 91.0547 23.1641C90.7786 23.3776 90.6406 23.651 90.6406 23.9844H88.7422C88.7422 23.5208 88.8958 23.0885 89.2031 22.6875C89.5104 22.2812 89.9271 21.9635 90.4531 21.7344C90.9844 21.5052 91.5755 21.3906 92.2266 21.3906C93.2161 21.3906 94.0052 21.6406 94.5938 22.1406C95.1823 22.6354 95.4844 23.3333 95.5 24.2344V28.0469C95.5 28.8073 95.6068 29.4141 95.8203 29.8672V30H93.8828ZM91.7969 28.6328C92.1719 28.6328 92.5234 28.5417 92.8516 28.3594C93.1849 28.1771 93.4349 27.9323 93.6016 27.625V26.0312H92.5781C91.875 26.0312 91.3464 26.1536 90.9922 26.3984C90.638 26.6432 90.4609 26.9896 90.4609 27.4375C90.4609 27.8021 90.5807 28.0938 90.8203 28.3125C91.0651 28.526 91.3906 28.6328 91.7969 28.6328ZM100.073 21.5469L100.128 22.4297C100.722 21.737 101.534 21.3906 102.566 21.3906C103.696 21.3906 104.469 21.8229 104.886 22.6875C105.501 21.8229 106.365 21.3906 107.48 21.3906C108.412 21.3906 109.105 21.6484 109.558 22.1641C110.016 22.6797 110.251 23.4401 110.261 24.4453V30H108.362V24.5C108.362 23.9635 108.245 23.5703 108.011 23.3203C107.777 23.0703 107.389 22.9453 106.847 22.9453C106.415 22.9453 106.06 23.0625 105.784 23.2969C105.514 23.526 105.323 23.8281 105.214 24.2031L105.222 30H103.323V24.4375C103.297 23.4427 102.79 22.9453 101.8 22.9453C101.04 22.9453 100.501 23.2552 100.183 23.875V30H98.2844V21.5469H100.073ZM120.428 25.8594C120.428 27.1719 120.134 28.2161 119.545 28.9922C118.962 29.7682 118.157 30.1562 117.131 30.1562C116.142 30.1562 115.371 29.7995 114.819 29.0859L114.725 30H113.006V18H114.905V22.3594C115.452 21.7135 116.189 21.3906 117.116 21.3906C118.147 21.3906 118.957 21.7734 119.545 22.5391C120.134 23.3047 120.428 24.375 120.428 25.75V25.8594ZM118.53 25.6953C118.53 24.7786 118.368 24.0911 118.045 23.6328C117.722 23.1745 117.254 22.9453 116.639 22.9453C115.816 22.9453 115.238 23.3047 114.905 24.0234V27.5078C115.243 28.2422 115.827 28.6094 116.655 28.6094C117.248 28.6094 117.707 28.388 118.03 27.9453C118.353 27.5026 118.519 26.8333 118.53 25.9375V25.6953ZM124.845 30H122.947V21.5469H124.845V30ZM122.83 19.3516C122.83 19.0599 122.921 18.8177 123.103 18.625C123.291 18.4323 123.556 18.3359 123.9 18.3359C124.244 18.3359 124.509 18.4323 124.697 18.625C124.884 18.8177 124.978 19.0599 124.978 19.3516C124.978 19.638 124.884 19.8776 124.697 20.0703C124.509 20.2578 124.244 20.3516 123.9 20.3516C123.556 20.3516 123.291 20.2578 123.103 20.0703C122.921 19.8776 122.83 19.638 122.83 19.3516ZM132.77 30C132.687 29.8385 132.614 29.5755 132.552 29.2109C131.947 29.8411 131.208 30.1562 130.333 30.1562C129.484 30.1562 128.791 29.9141 128.255 29.4297C127.718 28.9453 127.45 28.3464 127.45 27.6328C127.45 26.7318 127.783 26.0417 128.45 25.5625C129.122 25.0781 130.08 24.8359 131.325 24.8359H132.489V24.2812C132.489 23.8438 132.367 23.4948 132.122 23.2344C131.877 22.9688 131.505 22.8359 131.005 22.8359C130.572 22.8359 130.218 22.9453 129.942 23.1641C129.666 23.3776 129.528 23.651 129.528 23.9844H127.63C127.63 23.5208 127.783 23.0885 128.091 22.6875C128.398 22.2812 128.815 21.9635 129.341 21.7344C129.872 21.5052 130.463 21.3906 131.114 21.3906C132.104 21.3906 132.893 21.6406 133.481 22.1406C134.07 22.6354 134.372 23.3333 134.387 24.2344V28.0469C134.387 28.8073 134.494 29.4141 134.708 29.8672V30H132.77ZM130.684 28.6328C131.059 28.6328 131.411 28.5417 131.739 28.3594C132.072 28.1771 132.322 27.9323 132.489 27.625V26.0312H131.466C130.762 26.0312 130.234 26.1536 129.88 26.3984C129.526 26.6432 129.348 26.9896 129.348 27.4375C129.348 27.8021 129.468 28.0938 129.708 28.3125C129.953 28.526 130.278 28.6328 130.684 28.6328ZM141.602 23.2812C141.352 23.2396 141.094 23.2188 140.828 23.2188C139.958 23.2188 139.372 23.5521 139.07 24.2188V30H137.172V21.5469H138.984L139.031 22.4922C139.49 21.7578 140.125 21.3906 140.938 21.3906C141.208 21.3906 141.432 21.4271 141.609 21.5L141.602 23.2812ZM145.386 21.5469L145.441 22.4297C146.034 21.737 146.847 21.3906 147.878 21.3906C149.008 21.3906 149.782 21.8229 150.198 22.6875C150.813 21.8229 151.678 21.3906 152.792 21.3906C153.724 21.3906 154.417 21.6484 154.87 22.1641C155.329 22.6797 155.563 23.4401 155.573 24.4453V30H153.675V24.5C153.675 23.9635 153.558 23.5703 153.323 23.3203C153.089 23.0703 152.701 22.9453 152.159 22.9453C151.727 22.9453 151.373 23.0625 151.097 23.2969C150.826 23.526 150.636 23.8281 150.527 24.2031L150.534 30H148.636V24.4375C148.61 23.4427 148.102 22.9453 147.112 22.9453C146.352 22.9453 145.813 23.2552 145.495 23.875V30H143.597V21.5469H145.386ZM162.045 30.1562C160.842 30.1562 159.866 29.7786 159.116 29.0234C158.371 28.263 157.998 27.2526 157.998 25.9922V25.7578C157.998 24.9141 158.16 24.1615 158.483 23.5C158.811 22.8333 159.269 22.3151 159.858 21.9453C160.446 21.5755 161.103 21.3906 161.827 21.3906C162.978 21.3906 163.866 21.7578 164.491 22.4922C165.121 23.2266 165.436 24.2656 165.436 25.6094V26.375H159.913C159.97 27.0729 160.202 27.625 160.608 28.0312C161.019 28.4375 161.535 28.6406 162.155 28.6406C163.024 28.6406 163.733 28.2891 164.28 27.5859L165.303 28.5625C164.965 29.0677 164.511 29.4609 163.944 29.7422C163.381 30.0182 162.748 30.1562 162.045 30.1562ZM161.819 22.9141C161.298 22.9141 160.876 23.0964 160.553 23.4609C160.235 23.8255 160.032 24.3333 159.944 24.9844H163.561V24.8438C163.519 24.2083 163.35 23.7292 163.053 23.4062C162.756 23.0781 162.345 22.9141 161.819 22.9141ZM177.552 30C177.468 29.8385 177.395 29.5755 177.333 29.2109C176.729 29.8411 175.989 30.1562 175.114 30.1562C174.265 30.1562 173.572 29.9141 173.036 29.4297C172.499 28.9453 172.231 28.3464 172.231 27.6328C172.231 26.7318 172.565 26.0417 173.231 25.5625C173.903 25.0781 174.861 24.8359 176.106 24.8359H177.27V24.2812C177.27 23.8438 177.148 23.4948 176.903 23.2344C176.658 22.9688 176.286 22.8359 175.786 22.8359C175.354 22.8359 174.999 22.9453 174.723 23.1641C174.447 23.3776 174.309 23.651 174.309 23.9844H172.411C172.411 23.5208 172.565 23.0885 172.872 22.6875C173.179 22.2812 173.596 21.9635 174.122 21.7344C174.653 21.5052 175.244 21.3906 175.895 21.3906C176.885 21.3906 177.674 21.6406 178.262 22.1406C178.851 22.6354 179.153 23.3333 179.169 24.2344V28.0469C179.169 28.8073 179.276 29.4141 179.489 29.8672V30H177.552ZM175.466 28.6328C175.841 28.6328 176.192 28.5417 176.52 28.3594C176.854 28.1771 177.104 27.9323 177.27 27.625V26.0312H176.247C175.544 26.0312 175.015 26.1536 174.661 26.3984C174.307 26.6432 174.13 26.9896 174.13 27.4375C174.13 27.8021 174.249 28.0938 174.489 28.3125C174.734 28.526 175.059 28.6328 175.466 28.6328ZM193.292 27.3516H188.886L187.964 30H185.909L190.206 18.625H191.98L196.284 30H194.222L193.292 27.3516ZM189.441 25.7578H192.737L191.089 21.0391L189.441 25.7578ZM204.936 25.1797H200.358V30H198.381V18.625H205.608V20.2188H200.358V23.6016H204.936V25.1797ZM209.955 25.7734V30H207.978V18.625H212.33C213.601 18.625 214.608 18.9557 215.353 19.6172C216.103 20.2786 216.478 21.1536 216.478 22.2422C216.478 23.3568 216.111 24.224 215.377 24.8438C214.647 25.4635 213.624 25.7734 212.306 25.7734H209.955ZM209.955 24.1875H212.33C213.033 24.1875 213.569 24.0234 213.939 23.6953C214.309 23.362 214.494 22.8828 214.494 22.2578C214.494 21.6432 214.306 21.1536 213.931 20.7891C213.556 20.4193 213.041 20.2292 212.384 20.2188H209.955V24.1875ZM226.359 18.625L229.641 27.3438L232.914 18.625H235.469V30H233.5V26.25L233.695 21.2344L230.336 30H228.922L225.57 21.2422L225.766 26.25V30H223.797V18.625H226.359ZM238.073 25.6953C238.073 24.8672 238.238 24.1224 238.566 23.4609C238.894 22.7943 239.355 22.2839 239.948 21.9297C240.542 21.5703 241.224 21.3906 241.995 21.3906C243.136 21.3906 244.06 21.7578 244.769 22.4922C245.482 23.2266 245.868 24.2005 245.925 25.4141L245.933 25.8594C245.933 26.6927 245.771 27.4375 245.448 28.0938C245.131 28.75 244.672 29.2578 244.073 29.6172C243.48 29.9766 242.792 30.1562 242.011 30.1562C240.818 30.1562 239.863 29.7604 239.144 28.9688C238.43 28.1719 238.073 27.112 238.073 25.7891V25.6953ZM239.972 25.8594C239.972 26.7292 240.152 27.4115 240.511 27.9062C240.87 28.3958 241.37 28.6406 242.011 28.6406C242.652 28.6406 243.149 28.3906 243.503 27.8906C243.863 27.3906 244.042 26.6589 244.042 25.6953C244.042 24.8411 243.857 24.1641 243.488 23.6641C243.123 23.1641 242.626 22.9141 241.995 22.9141C241.376 22.9141 240.883 23.1615 240.519 23.6562C240.154 24.1458 239.972 24.8802 239.972 25.8594ZM247.983 25.7109C247.983 24.4089 248.285 23.3646 248.889 22.5781C249.493 21.7865 250.303 21.3906 251.319 21.3906C252.215 21.3906 252.939 21.7031 253.491 22.3281V18H255.389V30H253.67L253.577 29.125C253.009 29.8125 252.251 30.1562 251.303 30.1562C250.314 30.1562 249.511 29.7578 248.897 28.9609C248.287 28.1641 247.983 27.0807 247.983 25.7109ZM249.881 25.875C249.881 26.7344 250.045 27.4062 250.373 27.8906C250.707 28.3698 251.178 28.6094 251.787 28.6094C252.564 28.6094 253.131 28.263 253.491 27.5703V23.9609C253.142 23.2839 252.579 22.9453 251.803 22.9453C251.189 22.9453 250.715 23.1901 250.381 23.6797C250.048 24.1641 249.881 24.8958 249.881 25.875ZM261.892 30.1562C260.689 30.1562 259.712 29.7786 258.962 29.0234C258.218 28.263 257.845 27.2526 257.845 25.9922V25.7578C257.845 24.9141 258.007 24.1615 258.33 23.5C258.658 22.8333 259.116 22.3151 259.705 21.9453C260.293 21.5755 260.949 21.3906 261.673 21.3906C262.824 21.3906 263.712 21.7578 264.337 22.4922C264.968 23.2266 265.283 24.2656 265.283 25.6094V26.375H259.759C259.817 27.0729 260.048 27.625 260.455 28.0312C260.866 28.4375 261.382 28.6406 262.002 28.6406C262.871 28.6406 263.58 28.2891 264.127 27.5859L265.15 28.5625C264.811 29.0677 264.358 29.4609 263.791 29.7422C263.228 30.0182 262.595 30.1562 261.892 30.1562ZM261.666 22.9141C261.145 22.9141 260.723 23.0964 260.4 23.4609C260.082 23.8255 259.879 24.3333 259.791 24.9844H263.408V24.8438C263.366 24.2083 263.197 23.7292 262.9 23.4062C262.603 23.0781 262.192 22.9141 261.666 22.9141ZM269.583 30H267.684V18H269.583V30ZM272.102 25.6953C272.102 24.8672 272.266 24.1224 272.594 23.4609C272.922 22.7943 273.383 22.2839 273.977 21.9297C274.57 21.5703 275.253 21.3906 276.023 21.3906C277.164 21.3906 278.089 21.7578 278.797 22.4922C279.51 23.2266 279.896 24.2005 279.953 25.4141L279.961 25.8594C279.961 26.6927 279.799 27.4375 279.477 28.0938C279.159 28.75 278.701 29.2578 278.102 29.6172C277.508 29.9766 276.82 30.1562 276.039 30.1562C274.846 30.1562 273.891 29.7604 273.172 28.9688C272.458 28.1719 272.102 27.112 272.102 25.7891V25.6953ZM274 25.8594C274 26.7292 274.18 27.4115 274.539 27.9062C274.898 28.3958 275.398 28.6406 276.039 28.6406C276.68 28.6406 277.177 28.3906 277.531 27.8906C277.891 27.3906 278.07 26.6589 278.07 25.6953C278.07 24.8411 277.885 24.1641 277.516 23.6641C277.151 23.1641 276.654 22.9141 276.023 22.9141C275.404 22.9141 274.911 23.1615 274.547 23.6562C274.182 24.1458 274 24.8802 274 25.8594Z" fill="white"/>
</g>
<defs>
<filter id="filter0_d" x="0" y="0" width="358.235" height="58" filterUnits="userSpaceOnUse" color-interpolation-filters="sRGB">
<feFlood flood-opacity="0" result="BackgroundImageFix"/>
<feColorMatrix in="SourceAlpha" type="matrix" values="0 0 0 0 0 0 0 0 0 0 0 0 0 0 0 0 0 0 127 0"/>
<feOffset dy="4"/>
<feGaussianBlur stdDeviation="2"/>
<feColorMatrix type="matrix" values="0 0 0 0 0 0 0 0 0 0 0 0 0 0 0 0 0 0 0.25 0"/>
<feBlend mode="normal" in2="BackgroundImageFix" result="effect1_dropShadow"/>
<feBlend mode="normal" in="SourceGraphic" in2="effect1_dropShadow" result="shape"/>
</filter>
</defs>
</svg>
