<svg width="40" height="40" viewBox="0 0 40 40" fill="none" xmlns="http://www.w3.org/2000/svg">
    <path d="M11.2 11C9.979 11 9 11.979 9 13.2V24.2C9 24.7835 9.23178 25.3431 9.64437 25.7556C10.0569 26.1682 10.6165 26.4 11.2 26.4H20V31.9L23.3 28.6L26.6 31.9V26.4H28.8C29.3835 26.4 29.9431 26.1682 30.3556 25.7556C30.7682 25.3431 31 24.7835 31 24.2V16.5V14.3V13.2C31 12.6165 30.7682 12.0569 30.3556 11.6444C29.9431 11.2318 29.3835 11 28.8 11H24.4H11.2ZM20 13.2L23.3 15.4L26.6 13.2V17.05L29.9 18.7L26.6 20.35V24.2L23.3 22L20 24.2V20.35L16.7 18.7L20 17.05V13.2ZM11.2 13.2H16.7V15.4H11.2V13.2ZM11.2 17.6H14.5V19.8H11.2V17.6ZM11.2 22H16.7V24.2H11.2V22Z" fill="white"/>
</svg>
